…
IMPORTANTE: read.csv2 se utiliza cuando el archivo .csv tiene los datos separados con “;” y los decimales con “,” en lugar de “,” y “.” respectivamente. read.tsv se utiliza con archivos .tsv, archivos de texto cuyos datos estan separados por tabulaciones. Hay que tener en cuenta estas diferencias, ya que en algunos casos podemos encontrarnos con archivos .csv que tengan como separador tabuladores, o viceversa, y recordar que tenemos otras funciones para estos casos disminuye mucho la frustración a la hora de encontrarnos con errores misteriosos de este tipo.

readr

El paquete readr trae varias funciones especialmente diseñadas para la carga de datos, estas funciones tienen distintas ventajas sobre las de R base, una de ellas es que las variables textuales las carga como variables string y no como factor, lo que permite trabajar mas fácilmente con ellas.

Cargando los datos utilizando readr::read_csv:

library(readr)

datos_3 <- read_csv("data/iris.csv")

datos_3

## # A tibble: 150 x 5
##    Sepal.Length Sepal.Width Petal.Length Petal.Width Species
##           <dbl>       <dbl>        <dbl>       <dbl> <chr>  
##  1         5.10        3.50         1.40       0.200 setosa 
##  2         4.90        3.00         1.40       0.200 setosa 
##  3         4.70        3.20         1.30       0.200 setosa 
##  4         4.60        3.10         1.50       0.200 setosa 
##  5         5.00        3.60         1.40       0.200 setosa 
##  6         5.40        3.90         1.70       0.400 setosa 
##  7         4.60        3.40         1.40       0.300 setosa 
##  8         5.00        3.40         1.50       0.200 setosa 
##  9         4.40        2.90         1.40       0.200 setosa 
## 10         4.90        3.10         1.50       0.100 setosa 
## # ... with 140 more rows
…
read_xlsx

read_excel

La diferencia entre las dos primeras y read_excel es que esta última puede leer archivos con cualquier extensión, mientras que las dos primeras solo leen archivos con la extensión correspondiente a su nombre.

Cargando los datos con read_excel:

library(readxl)

datos_5 <- read_excel("data/iris.xlsx", sheet = 1)

datos_5

## # A tibble: 150 x 5
##    Sepal.Length Sepal.Width Petal.Length Petal.Width Species
##           <dbl>       <dbl>        <dbl>       <dbl> <chr>  
##  1         5.10        3.50         1.40       0.200 setosa 
##  2         4.90        3.00         1.40       0.200 setosa 
##  3         4.70        3.20         1.30       0.200 setosa 
##  4         4.60        3.10         1.50       0.200 setosa 
##  5         5.00        3.60         1.40       0.200 setosa 
##  6         5.40        3.90         1.70       0.400 setosa 
##  7         4.60        3.40         1.40       0.300 setosa 
##  8         5.00        3.40         1.50       0.200 setosa 
##  9         4.40        2.90         1.40       0.200 setosa 
## 10         4.90        3.10         1.50       0.100 setosa 
## # ... with 140 more rows
…
